https://www.youtube.com/watch?v=l482T0yNkeo,Hiway to heal,AC/DC
https://www.youtube.com/watch?v=v2AC41dglnM,bohemian rapsodi,Queen
https://www.youtube.com/watch?v=HyrWd_gfQNQ,nothing els matter,Metallica
https://www.youtube.com/watch?v=CjRas1yOWvo,Still loving you,Scorpion
